…
``` r
TestTibble <- capturesFemale %>%
  select(id, meanlon, meanlat) %>%
  mutate(Ratio = RegionRatio(meanlon, meanlat, 121381)) %>%
  mutate(Region1 = Ratio[[1]], Region2 = Ratio[[2]], Region3 = Ratio[[3]], Region4 = Ratio[[4]], RegionOther = Ratio[[5]]) %>%
  select(-Ratio)

TestTibble %>% 
  arrange(desc(RegionOther))
```

    ## # A tibble: 1,806 x 8
    ## # Groups:   id [1,806]
    ##    id                  meanlon  meanlat Region1 Region2 Region3 Region4 RegionOther
    ##    <chr>                 <dbl>    <dbl>   <dbl>   <dbl>   <dbl>   <dbl>       <dbl>
    ##  1 BI408946 S17-008    381306  6742271    0.373   0       0.011   0           0.616
    ##  2 BI408939 S17-001 +  382195. 6740997    0.375   0       0.01    0           0.615
    ##  3 BI407756 BD16-236   851500. 7560285    0       0       0       0.431       0.569
    ##  4 BI407674 BD16-149 + 856734. 7533838    0       0       0       0.48        0.52 
    ##  5 BI409386 X17-273    605948. 6739078.   0.484   0       0       0           0.516
    ##  6 BI407553 BD16-020 + 858771  7528040    0       0       0       0.485       0.515
    ##  7 BI409115 X17-002 +  602058. 6733611.   0.489   0       0       0           0.511
    ##  8 BI405021 NT117 +    439818  7166068.   0       0.153   0.338   0           0.51 
    ##  9 BI405768 HE165      383940  6788807    0.404   0       0.093   0           0.503
    ## 10 BI409059 W17-111    364428. 6864046.   0.227   0       0.277   0           0.496
    ## # ... with 1,796 more rows
…
